Introduction to R/R Studio Supplementary Materials
…
Now that we know the pipe operator, we can get into several functions that will be useful when wrangling and cleaning your data.

mutate()

This function creates a new column (or modifies an existing one) in your dataset. The syntax is as follows:

your_data%>%
  mutate(new_column_name = contents_of_new_column)

For example, with our college dataset, we might want to create a new column, which indicates whether the GradRate is above or below 50%.

college%>%
  mutate(grad_rate_above_50 = GradRate > .5)

# A tibble: 1,651 × 5
   Name                              Type  AdmisRate GradRate grad_rate_above_50
   <chr>                             <chr>     <dbl>    <dbl> <lgl>             
 1 Alabama A & M University          Publ…     0.684    0.127 FALSE             
 2 University of Alabama at Birming… Publ…     0.867    0.444 FALSE             
 3 University of Alabama in Huntsvi… Publ…     0.781    0.390 FALSE             
 4 Alabama State University          Publ…     0.966    0.136 FALSE             
 5 The University of Alabama         Publ…     0.801    0.548 TRUE              
 6 Auburn University at Montgomery   Publ…     0.922    0.145 FALSE             
 7 Auburn University                 Publ…     0.437    0.558 TRUE              
 8 Birmingham-Southern College       Priv…     0.572    0.585 TRUE              
 9 Faulkner University               Priv…     0.824    0.214 FALSE             
10 Herzing University-Birmingham     Priv…     0.941    0     FALSE             
# ℹ 1,641 more rows
…
Negating (Not) operator: !

if we want to filter for multiple things (say we wanted to keep only rows in which the state name was “Hawaii” or “Alaska”), we’d use the %in% operator. Example:

my_data%>%
  filter(state_name %in% c("Hawaii", "Alaska"))

the c() function organizes multiple objects into a vector, which we must do in order to use %in%.

For the college data, we might want to keep only colleges that are Type “Public”:

college%>%
  filter(Type == "Public")

# A tibble: 540 × 4
   Name                                Type   AdmisRate GradRate
   <chr>                               <chr>      <dbl>    <dbl>
 1 Alabama A & M University            Public     0.684    0.127
 2 University of Alabama at Birmingham Public     0.867    0.444
 3 University of Alabama in Huntsville Public     0.781    0.390
 4 Alabama State University            Public     0.966    0.136
 5 The University of Alabama           Public     0.801    0.548
 6 Auburn University at Montgomery     Public     0.922    0.145
 7 Auburn University                   Public     0.437    0.558
 8 Jacksonville State University       Public     0.785    0.309
 9 University of West Alabama          Public     0.689    0.286
10 University of Montevallo            Public     0.598    0.402
# ℹ 530 more rows
…
#instead of
my_data %>%
  select(bmi_1990, bmi_1995, bmi_2000, bmi_2005, bmi_2010)

To select only 1 column to keep, simply write in the name of the column, like in Example 1

To select more than 1 column to keep, just separate each column name by comma, like in Example 2

For our college dataset, we might only care about the Name and GradRate columns. We can select only these 2 by doing the following:

college %>%
  select(Name, GradRate)

# A tibble: 1,651 × 2
   Name                                GradRate
   <chr>                                  <dbl>
 1 Alabama A & M University               0.127
 2 University of Alabama at Birmingham    0.444
 3 University of Alabama in Huntsville    0.390
 4 Alabama State University               0.136
 5 The University of Alabama              0.548
 6 Auburn University at Montgomery        0.145
 7 Auburn University                      0.558
 8 Birmingham-Southern College            0.585
 9 Faulkner University                    0.214
10 Herzing University-Birmingham          0    
# ℹ 1,641 more rows
…
#Lowest to highest (ascending)
my_data %>%
  arrange(col1)

#Highest to lowest (descending)
my_data %>%
  arrange(desc(col1))

Say that we wanted to know which Colleges had the highest GradRates. One way to do this is to arrange, in descending order, the GradRate variable.

college%>%
  arrange(desc(GradRate))%>%
  select(Name, GradRate)

# A tibble: 1,651 × 2
   Name                                            GradRate
   <chr>                                              <dbl>
 1 Dharma Realm Buddhist University                       1
 2 Stevens-The Institute of Business & Arts               1
 3 Pacific Islands University                             1
 4 Joyce University of Nursing and Health Sciences        1
 5 Herzing University-Brookfield                          1
 6 Chamberlain University-Virginia                        1
 7 Chamberlain University-Georgia                         1
 8 Chamberlain University-Indiana                         1
 9 Chamberlain University-Michigan                        1
10 Chamberlain University-North Carolina                  1
# ℹ 1,641 more rows
…
There are functions that return a boolean (TRUE/FALSE) depending on the class of the object

is.numeric() returns TRUE if the object is a numeric class.

is.character() returns TRUE if the object is a character class.

You can also coerce objects into different classes, assuming that the underlying data supports this.

If I wanted to turn a numeric object into a character class object, I could use as.character().

college%>%
  mutate(GradRate = as.character(GradRate))

# A tibble: 1,651 × 4
   Name                                Type              AdmisRate GradRate
   <chr>                               <chr>                 <dbl> <chr>   
 1 Alabama A & M University            Public                0.684 0.1268  
 2 University of Alabama at Birmingham Public                0.867 0.4445  
 3 University of Alabama in Huntsville Public                0.781 0.3898  
 4 Alabama State University            Public                0.966 0.1365  
 5 The University of Alabama           Public                0.801 0.5482  
 6 Auburn University at Montgomery     Public                0.922 0.1452  
 7 Auburn University                   Public                0.437 0.5585  
 8 Birmingham-Southern College         Private nonprofit     0.572 0.5854  
 9 Faulkner University                 Private nonprofit     0.824 0.2145  
10 Herzing University-Birmingham       Private nonprofit     0.941 0       
# ℹ 1,641 more rows
…
