Introduction to Python for Data Science
…
import pandas as pd
homes = pd.read_csv("homes.csv")
# pd.read_table("https://mac-stat.github.io/data/homes.csv")

We’ll first explore the six main verbs from dplyr (mutate, filter, arrange, select, group_by, summarize). In R, we can use these verbs by running the following code:

#Adding A column that calculates the Price per room (mutate)
homes <- homes%>%
  mutate(Price_per_room = Price/Rooms)

#Keeping rows that only have 2 or more bathrooms (filter)
homes %>%
  filter(Bathrooms >= 2)

# A tibble: 905 × 17
    Price Lot.Size Waterfront   Age Land.Value New.Construct Central.Air
    <dbl>    <dbl>      <dbl> <dbl>      <dbl>         <dbl>       <dbl>
 1 181115     0.92          0     0      22300             0           0
 2 120000     0.92          0     1      22300             0           0
 3  97000     0.11          0   153       3100             0           0
 4 253750     2             0     0      49800             0           1
 5 148635     0.32          0     1       6200             1           1
 6 150000     0.03          0    24       5100             0           0
 7 248800     4             0    28       5500             0           0
 8 457000     0.43          1    53       2700             0           0
 9 187000     0.46          0     3      15200             0           0
10 229000     0.87          0     9      41100             0           0
# ℹ 895 more rows
# ℹ 10 more variables: Fuel.Type <dbl>, Heat.Type <dbl>, Sewer.Type <dbl>,
#   Living.Area <dbl>, Pct.College <dbl>, Bedrooms <dbl>, Fireplaces <dbl>,
#   Bathrooms <dbl>, Rooms <dbl>, Price_per_room <dbl>

#Ordering the data set based upon the Price of the home, from highest to lowest (arrange)
homes%>%
  arrange(desc(Price))

# A tibble: 1,728 × 17
    Price Lot.Size Waterfront   Age Land.Value New.Construct Central.Air
    <dbl>    <dbl>      <dbl> <dbl>      <dbl>         <dbl>       <dbl>
 1 775000     0             1     5     412600             0           1
 2 775000     0.48          0    31      72600             0           1
 3 760000     1.22          0     2     194700             0           1
 4 725000     0.21          0     3      70600             0           1
 5 670000     0.11          0   121      87000             0           0
 6 658300     0.69          0     3     101500             0           1
 7 655000     0.19          0    55     103000             0           0
 8 650000     0.43          0     2      87800             0           1
 9 650000     0.34          0     3      82400             0           1
10 649000     1.04          0    10     192900             0           1
# ℹ 1,718 more rows
# ℹ 10 more variables: Fuel.Type <dbl>, Heat.Type <dbl>, Sewer.Type <dbl>,
#   Living.Area <dbl>, Pct.College <dbl>, Bedrooms <dbl>, Fireplaces <dbl>,
#   Bathrooms <dbl>, Rooms <dbl>, Price_per_room <dbl>

#Selecting only Price, Rooms, and Bathrooms (select)
homes%>%
  select(Price, Rooms, Bathrooms, Price_per_room)

# A tibble: 1,728 × 4
    Price Rooms Bathrooms Price_per_room
    <dbl> <dbl>     <dbl>          <dbl>
 1 132500     5       1           26500 
 2 181115     6       2.5         30186.
 3 109000     8       1           13625 
 4 155000     5       1.5         31000 
 5  86060     3       1           28687.
 6 120000     8       1           15000 
 7 153000     8       1.5         19125 
 8 170000     9       1.5         18889.
 9  90000     8       1.5         11250 
10 122900     6       1.5         20483.
# ℹ 1,718 more rows
…
